[
  {
    "model": "cb 1300 su-pa-borudo-ru",
    "year": 2008,
    "key": "1424536",
    "mileage": 65789,
    "image": "https://projapan.ru",
    "manufacturer": "H"
  },
  {
    "model": "VALKYRIE RUNE",
    "year": 2005,
    "key": "20220225,2566,1",
    "mileage": 75638,
    "image": "https://projapan.ru/auctiondata/bds/disp/bds/20220225/image1_small/256620220225.jpg",
    "manufacturer": "H"
  },
  {
    "model": "cb 1300 sf",
    "year": 2000,
    "key": "1424547",
    "mileage": 65218,
    "image": "https://projapan.ru",
    "manufacturer": "H"
  },
  {
    "model": "CB1300SF-2",
    "year": 2003,
    "key": "20220225,2621,1",
    "mileage": 162734,
    "image": "https://projapan.ru/auctiondata/bds/disp/bds/20220225/image1_small/262120220225.jpg",
    "manufacturer": "H"
  },
  {
    "model": "cb 1300 su-pa-borudo-ru",
    "year": 2009,
    "key": "1425651",
    "mileage": 38661,
    "image": "https://projapan.ru",
    "manufacturer": "H"
  },
  {
    "model": "CB1300SF BOL D'OR",
    "year": 2010,
    "key": "20220225,5476,1",
    "mileage": 55414,
    "image": "https://projapan.ru/auctiondata/bds/disp/bds/20220225/image1_small/547620220225.jpg",
    "manufacturer": "H"
  },
  {
    "model": "cb 1300 sf",
    "year": 2001,
    "key": "1425620",
    "mileage": 80,
    "image": "https://projapan.ru",
    "manufacturer": "H"
  },
  {
    "model": "CBR1100XX",
    "year": 2001,
    "key": "20220225,0119,2",
    "mileage": 0,
    "image": "https://projapan.ru/auctiondata/bds/disp/bds/20220225/image1_small/011920220225.jpg",
    "manufacturer": "H"
  },
  {
    "model": "cbr 1100 xx",
    "year": 2002,
    "key": "1424239",
    "mileage": 71444,
    "image": "https://projapan.ru",
    "manufacturer": "H"
  },
  {
    "model": "cb 1100",
    "year": 2010,
    "key": "1424092",
    "mileage": 37789,
    "image": "https://projapan.ru",
    "manufacturer": "H"
  },
  {
    "model": "VTR1000F",
    "year": 2002,
    "key": "20220225,0205,2",
    "mileage": 73512,
    "image": "https://projapan.ru/auctiondata/bds/disp/bds/20220225/image1_small/020520220225.jpg",
    "manufacturer": "H"
  },
  {
    "model": "cbr 1100 xx",
    "year": 2002,
    "key": "1424137",
    "mileage": 17202,
    "image": "https://projapan.ru",
    "manufacturer": "H"
  },
  {
    "model": "CBR1000RR",
    "year": 2004,
    "key": "20220225,4270,2",
    "mileage": 34888,
    "image": "https://projapan.ru/auctiondata/bds/disp/bds/20220225/image1_small/427020220225.jpg",
    "manufacturer": "H"
  },
  {
    "model": "cbr 954 rr",
    "year": 2002,
    "key": "1424266",
    "mileage": 37123,
    "image": "https://projapan.ru",
    "manufacturer": "H"
  },
  {
    "model": "CBR1000RR",
    "year": 2008,
    "key": "20220225,5487,1",
    "mileage": 17031,
    "image": "https://projapan.ru/auctiondata/bds/disp/bds/20220225/image1_small/548720220225.jpg",
    "manufacturer": "H"
  },
  {
    "model": "SHADOW 750",
    "year": 2001,
    "key": "1425122",
    "mileage": 61766,
    "image": "https://projapan.ru",
    "manufacturer": "H"
  },
  {
    "model": "SHADOW 750",
    "year": 2005,
    "key": "1424223",
    "mileage": 2851,
    "image": "https://projapan.ru",
    "manufacturer": "H"
  },
  {
    "model": "SILVER WING 600",
    "year": 2001,
    "key": "1424713",
    "mileage": 74817,
    "image": "https://projapan.ru",
    "manufacturer": "H"
  },
  {
    "model": "VT750S",
    "year": 2010,
    "key": "20220225,3672,2",
    "mileage": 134438,
    "image": "https://projapan.ru/auctiondata/bds/disp/bds/20220225/image1_small/367220220225.jpg",
    "manufacturer": "H"
  },
  {
    "model": "cbr 600 rr",
    "year": 2007,
    "key": "1424082",
    "mileage": 22996,
    "image": "https://projapan.ru",
    "manufacturer": "H"
  },
  {
    "model": "CB750-2",
    "year": 2007,
    "key": "20220225,5403,1",
    "mileage": 43861,
    "image": "https://projapan.ru/auctiondata/bds/disp/bds/20220225/image1_small/540320220225.jpg",
    "manufacturer": "H"
  },
  {
    "model": "cbr 600 rr",
    "year": 2010,
    "key": "1425735",
    "mileage": 9316,
    "image": "https://projapan.ru",
    "manufacturer": "H"
  },
  {
    "model": "CBR600RR-3A",
    "year": 2009,
    "key": "20220225,5273,1",
    "mileage": 64599,
    "image": "https://projapan.ru/auctiondata/bds/disp/bds/20220225/image1_small/527320220225.jpg",
    "manufacturer": "H"
  },
  {
    "model": "cbr 600 rr",
    "year": 2008,
    "key": "1424065",
    "mileage": 8145,
    "image": "https://projapan.ru",
    "manufacturer": "H"
  },
  {
    "model": "CBR600RR-3",
    "year": 2007,
    "key": "20220225,5468,1",
    "mileage": 54701,
    "image": "https://projapan.ru/auctiondata/bds/disp/bds/20220225/image1_small/546820220225.jpg",
    "manufacturer": "H"
  },
  {
    "model": "cb 400 su-pa-borudo-rurebo",
    "year": 2009,
    "key": "1425197",
    "mileage": 92716,
    "image": "https://projapan.ru",
    "manufacturer": "H"
  },
  {
    "model": "CB400SS-E",
    "year": 2005,
    "key": "20220225,5352,1",
    "mileage": 72520,
    "image": "https://projapan.ru/auctiondata/bds/disp/bds/20220225/image1_small/535220220225.jpg",
    "manufacturer": "H"
  },
  {
    "model": "cb 400 sf vtec",
    "year": 2001,
    "key": "1425176",
    "mileage": 66575,
    "image": "https://projapan.ru",
    "manufacturer": "H"
  },
  {
    "model": "CB400SFVA BOL D'OR",
    "year": 2009,
    "key": "20220225,2652,1",
    "mileage": 47495,
    "image": "https://projapan.ru/auctiondata/bds/disp/bds/20220225/image1_small/265220220225.jpg",
    "manufacturer": "H"
  },
  {
    "model": "cb 400 su-pa-borudo-rurebo",
    "year": 2010,
    "key": "1424577",
    "mileage": 54108,
    "image": "https://projapan.ru",
    "manufacturer": "H"
  },
  {
    "model": "CB400SFV",
    "year": 2001,
    "key": "20220225,5494,1",
    "mileage": 46545,
    "image": "https://projapan.ru/auctiondata/bds/disp/bds/20220225/image1_small/549420220225.jpg",
    "manufacturer": "H"
  },
  {
    "model": "cb 400 sf vtecsupekku 3",
    "year": 2005,
    "key": "1425537",
    "mileage": 47600,
    "image": "https://projapan.ru",
    "manufacturer": "H"
  },
  {
    "model": "CB400SFV-3",
    "year": 2005,
    "key": "20220225,5117,1",
    "mileage": 45713,
    "image": "https://projapan.ru/auctiondata/bds/disp/bds/20220225/image1_small/511720220225.jpg",
    "manufacturer": "H"
  },
  {
    "model": "cb 400 su-pa-borudo-ru",
    "year": 2005,
    "key": "1425728",
    "mileage": 35618,
    "image": "https://projapan.ru",
    "manufacturer": "H"
  },
  {
    "model": "CB400SFV-2",
    "year": 2003,
    "key": "20220225,4172,2",
    "mileage": 38927,
    "image": "https://projapan.ru/auctiondata/bds/disp/bds/20220225/image1_small/417220220225.jpg",
    "manufacturer": "H"
  },
  {
    "model": "CB 400 SF VTEC SPEC 2",
    "year": 2003,
    "key": "1424148",
    "mileage": 29750,
    "image": "https://projapan.ru",
    "manufacturer": "H"
  },
  {
    "model": "CB400SFV-4",
    "year": 2008,
    "key": "20220225,5326,1",
    "mileage": 37346,
    "image": "https://projapan.ru/auctiondata/bds/disp/bds/20220225/image1_small/532620220225.jpg",
    "manufacturer": "H"
  },
  {
    "model": "cb 400 su-pa-borudo-ru",
    "year": 2007,
    "key": "1425611",
    "mileage": 29503,
    "image": "https://projapan.ru",
    "manufacturer": "H"
  },
  {
    "model": "SHADOW400",
    "year": 2002,
    "key": "20220225,4215,2",
    "mileage": 36735,
    "image": "https://projapan.ru/auctiondata/bds/disp/bds/20220225/image1_small/421520220225.jpg",
    "manufacturer": "H"
  },
  {
    "model": "CB 400 SF VTEC SPEC 2",
    "year": 2003,
    "key": "1425613",
    "mileage": 10873,
    "image": "https://projapan.ru",
    "manufacturer": "H"
  },
  {
    "model": "CB400SFV-3",
    "year": 2004,
    "key": "20220225,2651,1",
    "mileage": 36099,
    "image": "https://projapan.ru/auctiondata/bds/disp/bds/20220225/image1_small/265120220225.jpg",
    "manufacturer": "H"
  },
  {
    "model": "SHADOW 400",
    "year": 2003,
    "key": "1425741",
    "mileage": 7339,
    "image": "https://projapan.ru",
    "manufacturer": "H"
  },
  {
    "model": "SILVERWING400A",
    "year": 2006,
    "key": "20220225,2545,1",
    "mileage": 18928,
    "image": "https://projapan.ru/auctiondata/bds/disp/bds/20220225/image1_small/254520220225.jpg",
    "manufacturer": "H"
  },
  {
    "model": "cb 400 ss seru",
    "year": 2008,
    "key": "1424105",
    "mileage": 4696,
    "image": "https://projapan.ru",
    "manufacturer": "H"
  },
  {
    "model": "CB400SFV",
    "year": 2000,
    "key": "20220225,0228,2",
    "mileage": 0,
    "image": "https://projapan.ru/auctiondata/bds/disp/bds/20220225/image1_small/022820220225.jpg",
    "manufacturer": "H"
  },
  {
    "model": "SHADOW 400",
    "year": 2001,
    "key": "1424076",
    "mileage": 533,
    "image": "https://projapan.ru",
    "manufacturer": "H"
  },
  {
    "model": "SHADOW 400",
    "year": 2006,
    "key": "1425801",
    "mileage": 0,
    "image": "https://projapan.ru",
    "manufacturer": "H"
  },
  {
    "model": "SHADOW 400",
    "year": 2003,
    "key": "1425788",
    "mileage": 0,
    "image": "https://projapan.ru",
    "manufacturer": "H"
  },
  {
    "model": "GL1800",
    "year": 2009,
    "key": "20220223,5092,1",
    "mileage": 34074,
    "image": "https://projapan.ru/auctiondata/bds/disp/bds/20220223/image1_small/509220220223.jpg",
    "manufacturer": "H"
  },
  {
    "model": "VALKYRIE RUNE TRIKE",
    "year": 2006,
    "key": "20220223,7861,1",
    "mileage": 9663,
    "image": "https://projapan.ru/auctiondata/bds/disp/bds/20220223/image1_small/786120220223.jpg",
    "manufacturer": "H"
  },
  {
    "model": "CB1300SF-2",
    "year": 2003,
    "key": "20220223,0252,1",
    "mileage": 38223,
    "image": "https://projapan.ru/auctiondata/bds/disp/bds/20220223/image1_small/025220220223.jpg",
    "manufacturer": "H"
  },
  {
    "model": "CB1300ST",
    "year": 2010,
    "key": "20220223,2948,1",
    "mileage": 28223,
    "image": "https://projapan.ru/auctiondata/bds/disp/bds/20220223/image1_small/294820220223.jpg",
    "manufacturer": "H"
  },
  {
    "model": "CB1300SFA BOL D'OR",
    "year": 2008,
    "key": "20220223,0244,1",
    "mileage": 27153,
    "image": "https://projapan.ru/auctiondata/bds/disp/bds/20220223/image1_small/024420220223.jpg",
    "manufacturer": "H"
  },
  {
    "model": "CB1300SFA",
    "year": 2009,
    "key": "20220223,5106,1",
    "mileage": 22433,
    "image": "https://projapan.ru/auctiondata/bds/disp/bds/20220223/image1_small/510620220223.jpg",
    "manufacturer": "H"
  },
  {
    "model": "CBR1100XX",
    "year": 2003,
    "key": "20220223,5207,1",
    "mileage": 89904,
    "image": "https://projapan.ru/auctiondata/bds/disp/bds/20220223/image1_small/520720220223.jpg",
    "manufacturer": "H"
  },
  {
    "model": "CB1100A",
    "year": 2010,
    "key": "20220223,2555,1",
    "mileage": 31660,
    "image": "https://projapan.ru/auctiondata/bds/disp/bds/20220223/image1_small/255520220223.jpg",
    "manufacturer": "H"
  },
  {
    "model": "CB1100",
    "year": 2010,
    "key": "20220223,7778,1",
    "mileage": 25115,
    "image": "https://projapan.ru/auctiondata/bds/disp/bds/20220223/image1_small/777820220223.jpg",
    "manufacturer": "H"
  },
  {
    "model": "CBR1000RR",
    "year": 2005,
    "key": "20220223,7606,1",
    "mileage": 63935,
    "image": "https://projapan.ru/auctiondata/bds/disp/bds/20220223/image1_small/760620220223.jpg",
    "manufacturer": "H"
  },
  {
    "model": "CBR1000RR",
    "year": 2007,
    "key": "20220223,5432,1",
    "mileage": 45600,
    "image": "https://projapan.ru/auctiondata/bds/disp/bds/20220223/image1_small/543220220223.jpg",
    "manufacturer": "H"
  },
  {
    "model": "CBR1000RR-2",
    "year": 2008,
    "key": "20220223,0147,1",
    "mileage": 31392,
    "image": "https://projapan.ru/auctiondata/bds/disp/bds/20220223/image1_small/014720220223.jpg",
    "manufacturer": "H"
  },
  {
    "model": "CBR1000RR",
    "year": 2007,
    "key": "20220223,8034,1",
    "mileage": 21861,
    "image": "https://projapan.ru/auctiondata/bds/disp/bds/20220223/image1_small/803420220223.jpg",
    "manufacturer": "H"
  },
  {
    "model": "CBR1000RR",
    "year": 2008,
    "key": "20220223,5383,1",
    "mileage": 14649,
    "image": "https://projapan.ru/auctiondata/bds/disp/bds/20220223/image1_small/538320220223.jpg",
    "manufacturer": "H"
  },
  {
    "model": "VTR1000SP-1",
    "year": 2002,
    "key": "20220223,7512,1",
    "mileage": 12950,
    "image": "https://projapan.ru/auctiondata/bds/disp/bds/20220223/image1_small/751220220223.jpg",
    "manufacturer": "H"
  },
  {
    "model": "CBR1000RR",
    "year": 2008,
    "key": "20220223,7994,1",
    "mileage": 10415,
    "image": "https://projapan.ru/auctiondata/bds/disp/bds/20220223/image1_small/799420220223.jpg",
    "manufacturer": "H"
  },
  {
    "model": "CBR900RR-3",
    "year": 2001,
    "key": "20220223,0243,1",
    "mileage": 54711,
    "image": "https://projapan.ru/auctiondata/bds/disp/bds/20220223/image1_small/024320220223.jpg",
    "manufacturer": "H"
  },
  {
    "model": "CBR900RR-3",
    "year": 2000,
    "key": "20220223,0495,1",
    "mileage": 22216,
    "image": "https://projapan.ru/auctiondata/bds/disp/bds/20220223/image1_small/049520220223.jpg",
    "manufacturer": "H"
  },
  {
    "model": "VFR800-2A",
    "year": 2006,
    "key": "20220223,8038,1",
    "mileage": 13386,
    "image": "https://projapan.ru/auctiondata/bds/disp/bds/20220223/image1_small/803820220223.jpg",
    "manufacturer": "H"
  },
  {
    "model": "CB750-2",
    "year": 2004,
    "key": "20220223,7775,1",
    "mileage": 59636,
    "image": "https://projapan.ru/auctiondata/bds/disp/bds/20220223/image1_small/777520220223.jpg",
    "manufacturer": "H"
  },
  {
    "model": "CB750-2",
    "year": 2008,
    "key": "20220223,0263,1",
    "mileage": 33176,
    "image": "https://projapan.ru/auctiondata/bds/disp/bds/20220223/image1_small/026320220223.jpg",
    "manufacturer": "H"
  },
  {
    "model": "AFRICATWIN750-2",
    "year": 2000,
    "key": "20220223,2916,1",
    "mileage": 21609,
    "image": "https://projapan.ru/auctiondata/bds/disp/bds/20220223/image1_small/291620220223.jpg",
    "manufacturer": "H"
  },
  {
    "model": "CB750",
    "year": 2008,
    "key": "20220223,2521,1",
    "mileage": 17458,
    "image": "https://projapan.ru/auctiondata/bds/disp/bds/20220223/image1_small/252120220223.jpg",
    "manufacturer": "H"
  },
  {
    "model": "DN-01",
    "year": 2008,
    "key": "20220223,0154,1",
    "mileage": 18872,
    "image": "https://projapan.ru/auctiondata/bds/disp/bds/20220223/image1_small/015420220223.jpg",
    "manufacturer": "H"
  },
  {
    "model": "XR650R",
    "year": 2002,
    "key": "20220223,0431,1",
    "mileage": 18122,
    "image": "https://projapan.ru/auctiondata/bds/disp/bds/20220223/image1_small/043120220223.jpg",
    "manufacturer": "H"
  },
  {
    "model": "SILVERWING600",
    "year": 2002,
    "key": "20220223,0321,1",
    "mileage": 56306,
    "image": "https://projapan.ru/auctiondata/bds/disp/bds/20220223/image1_small/032120220223.jpg",
    "manufacturer": "H"
  },
  {
    "model": "CBR600RR-2",
    "year": 2005,
    "key": "20220223,5193,1",
    "mileage": 51867,
    "image": "https://projapan.ru/auctiondata/bds/disp/bds/20220223/image1_small/519320220223.jpg",
    "manufacturer": "H"
  },
  {
    "model": "SILVERWING600GT",
    "year": 2010,
    "key": "20220223,8032,1",
    "mileage": 35891,
    "image": "https://projapan.ru/auctiondata/bds/disp/bds/20220223/image1_small/803220220223.jpg",
    "manufacturer": "H"
  },
  {
    "model": "CBR600RR-3A",
    "year": 2009,
    "key": "20220223,8017,1",
    "mileage": 22063,
    "image": "https://projapan.ru/auctiondata/bds/disp/bds/20220223/image1_small/801720220223.jpg",
    "manufacturer": "H"
  },
  {
    "model": "CBR600RR",
    "year": 2004,
    "key": "20220223,2988,1",
    "mileage": 10850,
    "image": "https://projapan.ru/auctiondata/bds/disp/bds/20220223/image1_small/298820220223.jpg",
    "manufacturer": "H"
  },
  {
    "model": "CBR600RR-3",
    "year": 2007,
    "key": "20220223,2729,1",
    "mileage": 8972,
    "image": "https://projapan.ru/auctiondata/bds/disp/bds/20220223/image1_small/272920220223.jpg",
    "manufacturer": "H"
  },
  {
    "model": "CB400SFV-4",
    "year": 2009,
    "key": "20220223,2897,1",
    "mileage": 108198,
    "image": "https://projapan.ru/auctiondata/bds/disp/bds/20220223/image1_small/289720220223.jpg",
    "manufacturer": "H"
  },
  {
    "model": "CB400SFV-4",
    "year": 2009,
    "key": "20220223,2892,1",
    "mileage": 105138,
    "image": "https://projapan.ru/auctiondata/bds/disp/bds/20220223/image1_small/289220220223.jpg",
    "manufacturer": "H"
  },
  {
    "model": "CB400SFV-3",
    "year": 2006,
    "key": "20220223,2686,1",
    "mileage": 57510,
    "image": "https://projapan.ru/auctiondata/bds/disp/bds/20220223/image1_small/268620220223.jpg",
    "manufacturer": "H"
  },
  {
    "model": "CB400SFV BOL D'OR",
    "year": 2007,
    "key": "20220223,7807,1",
    "mileage": 55335,
    "image": "https://projapan.ru/auctiondata/bds/disp/bds/20220223/image1_small/780720220223.jpg",
    "manufacturer": "H"
  },
  {
    "model": "CB400SFV BOL D'OR",
    "year": 2007,
    "key": "20220223,2839,1",
    "mileage": 53922,
    "image": "https://projapan.ru/auctiondata/bds/disp/bds/20220223/image1_small/283920220223.jpg",
    "manufacturer": "H"
  },
  {
    "model": "CB400SFV",
    "year": 2000,
    "key": "20220223,5128,1",
    "mileage": 48401,
    "image": "https://projapan.ru/auctiondata/bds/disp/bds/20220223/image1_small/512820220223.jpg",
    "manufacturer": "H"
  },
  {
    "model": "CB400SFV-4",
    "year": 2009,
    "key": "20220223,7781,1",
    "mileage": 42777,
    "image": "https://projapan.ru/auctiondata/bds/disp/bds/20220223/image1_small/778120220223.jpg",
    "manufacturer": "H"
  },
  {
    "model": "CB400SFV-4",
    "year": 2010,
    "key": "20220223,5062,1",
    "mileage": 39120,
    "image": "https://projapan.ru/auctiondata/bds/disp/bds/20220223/image1_small/506220220223.jpg",
    "manufacturer": "H"
  },
  {
    "model": "SHADOW400 SLASHER",
    "year": 2000,
    "key": "20220223,7755,1",
    "mileage": 38702,
    "image": "https://projapan.ru/auctiondata/bds/disp/bds/20220223/image1_small/775520220223.jpg",
    "manufacturer": "H"
  },
  {
    "model": "CB400SS-E",
    "year": 2008,
    "key": "20220223,7980,1",
    "mileage": 30996,
    "image": "https://projapan.ru/auctiondata/bds/disp/bds/20220223/image1_small/798020220223.jpg",
    "manufacturer": "H"
  },
  {
    "model": "CB400SS-E",
    "year": 2010,
    "key": "20220223,5266,1",
    "mileage": 29110,
    "image": "https://projapan.ru/auctiondata/bds/disp/bds/20220223/image1_small/526620220223.jpg",
    "manufacturer": "H"
  },
  {
    "model": "RVF400",
    "year": 2001,
    "key": "20220223,7935,1",
    "mileage": 28133,
    "image": "https://projapan.ru/auctiondata/bds/disp/bds/20220223/image1_small/793520220223.jpg",
    "manufacturer": "H"
  },
  {
    "model": "CB400SFV-3",
    "year": 2005,
    "key": "20220223,7995,1",
    "mileage": 27113,
    "image": "https://projapan.ru/auctiondata/bds/disp/bds/20220223/image1_small/799520220223.jpg",
    "manufacturer": "H"
  },
  {
    "model": "CB400SFV BOL D'OR",
    "year": 2006,
    "key": "20220223,0125,1",
    "mileage": 25829,
    "image": "https://projapan.ru/auctiondata/bds/disp/bds/20220223/image1_small/012520220223.jpg",
    "manufacturer": "H"
  },
  {
    "model": "CB400SFV-4",
    "year": 2010,
    "key": "20220223,7834,1",
    "mileage": 22984,
    "image": "https://projapan.ru/auctiondata/bds/disp/bds/20220223/image1_small/783420220223.jpg",
    "manufacturer": "H"
  },
  {
    "model": "CB400SFV-2",
    "year": 2003,
    "key": "20220223,5315,1",
    "mileage": 22219,
    "image": "https://projapan.ru/auctiondata/bds/disp/bds/20220223/image1_small/531520220223.jpg",
    "manufacturer": "H"
  },
  {
    "model": "CB400SFV-4",
    "year": 2009,
    "key": "20220223,0051,1",
    "mileage": 16480,
    "image": "https://projapan.ru/auctiondata/bds/disp/bds/20220223/image1_small/005120220223.jpg",
    "manufacturer": "H"
  },
  {
    "model": "SHADOW400 SLASHER",
    "year": 2003,
    "key": "20220223,5024,1",
    "mileage": 13576,
    "image": "https://projapan.ru/auctiondata/bds/disp/bds/20220223/image1_small/502420220223.jpg",
    "manufacturer": "H"
  },
  {
    "model": "CB400SFV-4",
    "year": 2008,
    "key": "20220223,5251,1",
    "mileage": 12016,
    "image": "https://projapan.ru/auctiondata/bds/disp/bds/20220223/image1_small/525120220223.jpg",
    "manufacturer": "H"
  },
  {
    "model": "CBX400F",
    "year": 2005,
    "key": "20220223,5325,1",
    "mileage": 11999,
    "image": "https://projapan.ru/auctiondata/bds/disp/bds/20220223/image1_small/532520220223.jpg",
    "manufacturer": "H"
  },
  {
    "model": "CB400SS-E",
    "year": 2005,
    "key": "20220223,5057,1",
    "mileage": 11645,
    "image": "https://projapan.ru/auctiondata/bds/disp/bds/20220223/image1_small/505720220223.jpg",
    "manufacturer": "H"
  },
  {
    "model": "SHADOW400 CUSTOM",
    "year": 2008,
    "key": "20220223,7724,1",
    "mileage": 7999,
    "image": "https://projapan.ru/auctiondata/bds/disp/bds/20220223/image1_small/772420220223.jpg",
    "manufacturer": "H"
  },
  {
    "model": "CB400FOUR",
    "year": 2000,
    "key": "20220223,5307,1",
    "mileage": 7613,
    "image": "https://projapan.ru/auctiondata/bds/disp/bds/20220223/image1_small/530720220223.jpg",
    "manufacturer": "H"
  },
  {
    "model": "CB400SFV-3",
    "year": 2005,
    "key": "20220223,7734,1",
    "mileage": 7495,
    "image": "https://projapan.ru/auctiondata/bds/disp/bds/20220223/image1_small/773420220223.jpg",
    "manufacturer": "H"
  },
  {
    "model": "SHADOW400 SLASHER",
    "year": 2010,
    "key": "20220223,5121,1",
    "mileage": 5701,
    "image": "https://projapan.ru/auctiondata/bds/disp/bds/20220223/image1_small/512120220223.jpg",
    "manufacturer": "H"
  },
  {
    "model": "CB400SS-E",
    "year": 2006,
    "key": "20220223,7534,1",
    "mileage": 179,
    "image": "https://projapan.ru/auctiondata/bds/disp/bds/20220223/image1_small/753420220223.jpg",
    "manufacturer": "H"
  },
  {
    "model": "VRX400",
    "year": 2001,
    "key": "20220223,2643,1",
    "mileage": 161,
    "image": "https://projapan.ru/auctiondata/bds/disp/bds/20220223/image1_small/264320220223.jpg",
    "manufacturer": "H"
  },
  {
    "model": "SHADOW400 SLASHER",
    "year": 2002,
    "key": "20220223,8036,1",
    "mileage": 0,
    "image": "https://projapan.ru/auctiondata/bds/disp/bds/20220223/image1_small/803620220223.jpg",
    "manufacturer": "H"
  },
  {
    "model": "CB400SF",
    "year": 2002,
    "key": "20220223,5453,1",
    "mileage": 0,
    "image": "https://projapan.ru/auctiondata/bds/disp/bds/20220223/image1_small/545320220223.jpg",
    "manufacturer": "H"
  },
  {
    "model": "stx 1300 panyo-ropian",
    "year": 2006,
    "key": "1423018",
    "mileage": 63273,
    "image": "https://projapan.ru",
    "manufacturer": "H"
  },
  {
    "model": "cbr 1100 xx",
    "year": 2005,
    "key": "1423133",
    "mileage": 59874,
    "image": "https://projapan.ru",
    "manufacturer": "H"
  },
  {
    "model": "vtr 1000 f",
    "year": 2003,
    "key": "1423601",
    "mileage": 45185,
    "image": "https://projapan.ru",
    "manufacturer": "H"
  },
  {
    "model": "cbr 600 rr",
    "year": 2004,
    "key": "1423332",
    "mileage": 61200,
    "image": "https://projapan.ru",
    "manufacturer": "H"
  },
  {
    "model": "cb 400 four",
    "year": 2000,
    "key": "1423757",
    "mileage": 34269,
    "image": "https://projapan.ru",
    "manufacturer": "H"
  },
  {
    "model": "vt 400 s",
    "year": 2010,
    "key": "1423947",
    "mileage": 3692,
    "image": "https://projapan.ru",
    "manufacturer": "H"
  },
  {
    "model": "cb 400 sf vtecsupekku 3",
    "year": 2007,
    "key": "1422616",
    "mileage": 9007,
    "image": "https://projapan.ru",
    "manufacturer": "H"
  },
  {
    "model": "CB400SF VTEC",
    "year": 2009,
    "key": "1422702",
    "mileage": 58365,
    "image": "https://projapan.ru",
    "manufacturer": "H"
  },
  {
    "model": "cb 400 sf vtecsupekku 3",
    "year": 2005,
    "key": "1422653",
    "mileage": 36173,
    "image": "https://projapan.ru",
    "manufacturer": "H"
  },
  {
    "model": "cb 400 ss seru",
    "year": 2010,
    "key": "1422623",
    "mileage": 23148,
    "image": "https://projapan.ru",
    "manufacturer": "H"
  },
  {
    "model": "cb 400 su-pa-borudo-ru",
    "year": 2007,
    "key": "1424410",
    "mileage": 49090,
    "image": "https://projapan.ru",
    "manufacturer": "H"
  },
  {
    "model": "CB 400 SF VTEC SPEC 2",
    "year": 2002,
    "key": "1424981",
    "mileage": 54992,
    "image": "https://projapan.ru",
    "manufacturer": "H"
  },
  {
    "model": "cb 400 su-pa-borudo-ru",
    "year": 2006,
    "key": "1424980",
    "mileage": 67608,
    "image": "https://projapan.ru",
    "manufacturer": "H"
  },
  {
    "model": "SHADOW 400",
    "year": 2005,
    "key": "1424657",
    "mileage": 22714,
    "image": "https://projapan.ru",
    "manufacturer": "H"
  },
  {
    "model": "SHADOW 400",
    "year": 2003,
    "key": "1423196",
    "mileage": 20863,
    "image": "https://projapan.ru",
    "manufacturer": "H"
  },
  {
    "model": "CB 400 SF VTEC SPEC 2",
    "year": 2002,
    "key": "1423215",
    "mileage": 6454,
    "image": "https://projapan.ru",
    "manufacturer": "H"
  },
  {
    "model": "SHADOW 400",
    "year": 2008,
    "key": "1424683",
    "mileage": 18995,
    "image": "https://projapan.ru",
    "manufacturer": "H"
  },
  {
    "model": "CB400SF VTEC",
    "year": 2008,
    "key": "1422691",
    "mileage": 0,
    "image": "https://projapan.ru",
    "manufacturer": "H"
  },
  {
    "model": "CB 400 SF VTEC SPEC 2",
    "year": 2003,
    "key": "1425480",
    "mileage": 0,
    "image": "https://projapan.ru",
    "manufacturer": "H"
  },
  {
    "model": "cb 400 ss seru",
    "year": 2006,
    "key": "1423900",
    "mileage": 50438,
    "image": "https://projapan.ru",
    "manufacturer": "H"
  },
  {
    "model": "SHADOW 400",
    "year": 2007,
    "key": "1423497",
    "mileage": 44443,
    "image": "https://projapan.ru",
    "manufacturer": "H"
  }
]